<?xml version="1.0" encoding="utf-8"?>
<!-- Generator: Adobe Illustrator 19.1.0, SVG Export Plug-In . SVG Version: 6.00 Build 0)  -->
<svg version="1.1" id="Layer_1" xmlns="http://www.w3.org/2000/svg" xmlns:xlink="http://www.w3.org/1999/xlink" x="0px" y="0px"
	 viewBox="-343 525 752 752" style="enable-background:new -343 525 752 752;" xml:space="preserve">
<style type="text/css">
	.st0{opacity:0.9;}
	.st1{fill:#0099CC;}
	.st2{opacity:0.9;fill:#0099CC;enable-background:new    ;}
</style>
<g class="st0">
	<path class="st1" d="M33,1277c-50.8,0-100-9.9-146.4-29.6c-44.8-18.9-85-46-119.5-80.6s-61.6-74.7-80.6-119.5
		C-333.1,1001-343,951.8-343,901s9.9-100,29.6-146.4c18.9-44.8,46-85,80.6-119.5c34.5-34.5,74.7-61.6,119.5-80.6
		C-67,534.9-17.8,525,33,525s100,9.9,146.4,29.6c44.8,18.9,85,46,119.5,80.6c34.5,34.5,61.6,74.7,80.6,119.5
		C399.1,801,409,850.2,409,901s-9.9,100-29.6,146.4c-18.9,44.8-46,85-80.6,119.5c-34.5,34.5-74.7,61.6-119.5,80.6
		C133,1267.1,83.8,1277,33,1277z M33,557c-91.9,0-178.3,35.8-243.2,100.8C-275.2,722.7-311,809.1-311,901s35.8,178.3,100.8,243.2
		c65,64.9,151.3,100.8,243.2,100.8s178.3-35.8,243.2-100.8c65-65,100.8-151.4,100.8-243.2s-35.8-178.3-100.8-243.2
		C211.3,592.8,124.9,557,33,557z"/>
</g>
<path class="st2" d="M-222.9,923.6c0,9,7.2,16.3,16.3,16.3c3.4,0,6.6-1.1,9.2-2.9l0,0L33.1,775.7l230.6,161.5l0,0
	c2.6,1.7,5.6,2.8,9,2.8c9,0,16.3-7.2,16.3-16.3c0-5.4-2.7-10.1-6.6-13.1l0,0l-0.1-0.1c-0.2-0.1-0.3-0.2-0.6-0.4L33.1,736l0,0l0,0
	l-249.1,174.4l0,0C-220.2,913.4-222.9,918.3-222.9,923.6z"/>
</svg>
